 ___              _                     _____                  _              ___    _      ___   
(  _`\  _        (_ )                  (  _  )       _        ( )_           (  _`\ ( )    (  _`\ 
| | ) |(_)   _ _  | |    _      __     | (_) |      (_)   _ _ | ,_)   _ _    | |_) )| |    | ( (_)
| | | )| | /'_` ) | |  /'_`\  /'_ `\   |  _  |(`\/')| | /'_` )| |   /'_` )   | ,__/'| |  _ | |  _ 
| |_) || |( (_| | | | ( (_) )( (_) |   | | | | >  < | |( (_| || |_ ( (_| |   | |    | |_( )| (_( )
(____/'(_)`\__,_)(___)`\___/'`\__  |   (_) (_)(_/\_)(_)`\__,_)`\__)`\__,_)   (_)    (____/'(____/'
Dialog Project v1.0          ( )_) |                                                              
                              \___/'  
                                                                            
                                                                            